 999
SignTorch Vector Graphics - elephant_silhouette_.dxf
 999
copyright Gary DeWitt, signtorch.com
  0
SECTION
  2
HEADER
  9
$ACADVER
  1
AC1009
  9
$DWGCODEPAGE
  3
ansi_1252
  9
$INSBASE
 10
0.0
 20
0.0
 30
0.0
  9
$EXTMIN
 10
8.00117859480037
 20
8.181471918801204
 30
0.0
  9
$EXTMAX
 10
15.99887721654986
 20
15.81726885891289
 30
0.0
  9
$LIMMIN
 10
0.0
 20
0.0
  9
$LIMMAX
 10
12.0
 20
9.0
  9
$ORTHOMODE
 70
     0
  9
$REGENMODE
 70
     1
  9
$FILLMODE
 70
     1
  9
$QTEXTMODE
 70
     0
  9
$MIRRTEXT
 70
     1
  9
$DRAGMODE
 70
     2
  9
$LTSCALE
 40
1.0
  9
$OSMODE
 70
    37
  9
$ATTMODE
 70
     1
  9
$TEXTSIZE
 40
0.2
  9
$TRACEWID
 40
0.05
  9
$TEXTSTYLE
  7
STANDARD
  9
$CLAYER
  8
0
  9
$CELTYPE
  6
BYLAYER
  9
$CECOLOR
 62
   256
  9
$DIMSCALE
 40
1.0
  9
$DIMASZ
 40
0.18
  9
$DIMEXO
 40
0.0625
  9
$DIMDLI
 40
0.38
  9
$DIMRND
 40
0.0
  9
$DIMDLE
 40
0.0
  9
$DIMEXE
 40
0.18
  9
$DIMTP
 40
0.0
  9
$DIMTM
 40
0.0
  9
$DIMTXT
 40
0.18
  9
$DIMCEN
 40
0.09
  9
$DIMTSZ
 40
0.0
  9
$DIMTOL
 70
     0
  9
$DIMLIM
 70
     0
  9
$DIMTIH
 70
     1
  9
$DIMTOH
 70
     1
  9
$DIMSE1
 70
     0
  9
$DIMSE2
 70
     0
  9
$DIMTAD
 70
     0
  9
$DIMZIN
 70
     0
  9
$DIMBLK
  1

  9
$DIMASO
 70
     1
  9
$DIMSHO
 70
     1
  9
$DIMPOST
  1

  9
$DIMAPOST
  1

  9
$DIMALT
 70
     0
  9
$DIMALTD
 70
     2
  9
$DIMALTF
 40
25.4
  9
$DIMLFAC
 40
1.0
  9
$DIMTOFL
 70
     0
  9
$DIMTVP
 40
0.0
  9
$DIMTIX
 70
     0
  9
$DIMSOXD
 70
     0
  9
$DIMSAH
 70
     0
  9
$DIMBLK1
  1

  9
$DIMBLK2
  1

  9
$DIMSTYLE
  2
STANDARD
  9
$DIMCLRD
 70
     0
  9
$DIMCLRE
 70
     0
  9
$DIMCLRT
 70
     0
  9
$DIMTFAC
 40
1.0
  9
$DIMGAP
 40
0.09
  9
$LUNITS
 70
     2
  9
$LUPREC
 70
     4
  9
$SKETCHINC
 40
0.1
  9
$FILLETRAD
 40
0.5
  9
$AUNITS
 70
     0
  9
$AUPREC
 70
     0
  9
$MENU
  1
.
  9
$ELEVATION
 40
0.0
  9
$PELEVATION
 40
0.0
  9
$THICKNESS
 40
0.0
  9
$LIMCHECK
 70
     0
  9
$CHAMFERA
 40
0.5
  9
$CHAMFERB
 40
0.5
  9
$SKPOLY
 70
     0
  9
$TDCREATE
 40
2454910.5
  9
$TDUPDATE
 40
2456477.5036386
  9
$TDINDWG
 40
0.0000000116
  9
$TDUSRTIMER
 40
0.0000000116
  9
$USRTIMER
 70
     1
  9
$ANGBASE
 50
0.0
  9
$ANGDIR
 70
     0
  9
$PDMODE
 70
     0
  9
$PDSIZE
 40
0.0
  9
$PLINEWID
 40
0.0
  9
$COORDS
 70
     1
  9
$SPLFRAME
 70
     0
  9
$SPLINETYPE
 70
     6
  9
$SPLINESEGS
 70
     8
  9
$ATTDIA
 70
     0
  9
$ATTREQ
 70
     1
  9
$HANDLING
 70
     1
  9
$HANDSEED
  5
1D8
  9
$SURFTAB1
 70
     6
  9
$SURFTAB2
 70
     6
  9
$SURFTYPE
 70
     6
  9
$SURFU
 70
     6
  9
$SURFV
 70
     6
  9
$UCSNAME
  2

  9
$UCSORG
 10
0.0
 20
0.0
 30
0.0
  9
$UCSXDIR
 10
1.0
 20
0.0
 30
0.0
  9
$UCSYDIR
 10
0.0
 20
1.0
 30
0.0
  9
$PUCSNAME
  2

  9
$PUCSORG
 10
0.0
 20
0.0
 30
0.0
  9
$PUCSXDIR
 10
1.0
 20
0.0
 30
0.0
  9
$PUCSYDIR
 10
0.0
 20
1.0
 30
0.0
  9
$USERI1
 70
     0
  9
$USERI2
 70
     0
  9
$USERI3
 70
     0
  9
$USERI4
 70
     0
  9
$USERI5
 70
     0
  9
$USERR1
 40
0.0
  9
$USERR2
 40
0.0
  9
$USERR3
 40
0.0
  9
$USERR4
 40
0.0
  9
$USERR5
 40
0.0
  9
$WORLDVIEW
 70
     1
  9
$SHADEDGE
 70
     3
  9
$SHADEDIF
 70
    70
  9
$TILEMODE
 70
     1
  9
$MAXACTVP
 70
    64
  9
$PLIMCHECK
 70
     0
  9
$PEXTMIN
 10
1.000000000000000E+20
 20
1.000000000000000E+20
 30
1.000000000000000E+20
  9
$PEXTMAX
 10
-1.000000000000000E+20
 20
-1.000000000000000E+20
 30
-1.000000000000000E+20
  9
$PLIMMIN
 10
0.0
 20
0.0
  9
$PLIMMAX
 10
12.0
 20
9.0
  9
$UNITMODE
 70
     0
  9
$VISRETAIN
 70
     1
  9
$PLINEGEN
 70
     0
  9
$PSLTSCALE
 70
     1
  0
ENDSEC
  0
SECTION
  2
TABLES
  0
TABLE
  2
VPORT
 70
     1
  0
VPORT
  2
*ACTIVE
 70
     0
 10
0.0
 20
0.0
 11
1.0
 21
1.0
 12
10.42990654205607
 22
4.5
 13
0.0
 23
0.0
 14
0.5
 24
0.5
 15
0.5
 25
0.5
 16
0.0
 26
0.0
 36
1.0
 17
0.0
 27
0.0
 37
0.0
 40
9.0
 41
1.972972972850329
 42
50.0
 43
0.0
 44
0.0
 50
0.0
 51
0.0
 71
     0
 72
   100
 73
     1
 74
     3
 75
     0
 76
     0
 77
     0
 78
     0
  0
ENDTAB
  0
TABLE
  2
LTYPE
 70
     2
  0
LTYPE
  2
CONTINUOUS
 70
     0
  3
Solid line
 72
    65
 73
     0
 40
0.0
  0
LTYPE
  2
CONTINUOUS2
 70
     0
  3
Solid Line
 72
    65
 73
     0
 40
0.0
  0
ENDTAB
  0
TABLE
  2
LAYER
 70
     2
  0
LAYER
  2
0
 70
     0
 62
     7
  6
CONTINUOUS
  0
LAYER
  2
SignTorch_ELEPHANT_SILHOUET
 70
     0
 62
    18
  6
CONTINUOUS
  0
ENDTAB
  0
TABLE
  2
STYLE
 70
     1
  0
STYLE
  2
STANDARD
 70
     0
 40
0.0
 41
1.0
 50
0.0
 71
     0
 42
0.2
  3
txt
  4

  0
ENDTAB
  0
TABLE
  2
VIEW
 70
     0
  0
ENDTAB
  0
TABLE
  2
UCS
 70
     0
  0
ENDTAB
  0
TABLE
  2
APPID
 70
     1
  0
APPID
  2
ACAD
 70
     0
  0
ENDTAB
  0
TABLE
  2
DIMSTYLE
 70
     1
  0
DIMSTYLE
  2
STANDARD
 70
     0
  3

  4

  5

  6

  7

 40
1.0
 41
0.18
 42
0.0625
 43
0.38
 44
0.18
 45
0.0
 46
0.0
 47
0.0
 48
0.0
140
0.18
141
0.09
142
0.0
143
25.4
144
1.0
145
0.0
146
1.0
147
0.09
 71
     0
 72
     0
 73
     1
 74
     1
 75
     0
 76
     0
 77
     0
 78
     0
170
     0
171
     2
172
     0
173
     0
174
     0
175
     0
176
     0
177
     0
178
     0
  0
ENDTAB
  0
ENDSEC
  0
SECTION
  2
BLOCKS
  0
BLOCK
  8
0
  2
$MODEL_SPACE
 70
     0
 10
0.0
 20
0.0
 30
0.0
  3
$MODEL_SPACE
  1

  0
ENDBLK
  5
21
  8
0
  0
BLOCK
 67
     1
  8
0
  2
$PAPER_SPACE
 70
     0
 10
0.0
 20
0.0
 30
0.0
  3
$PAPER_SPACE
  1

  0
ENDBLK
  5
1D
 67
     1
  8
0
  0
ENDSEC
  0
SECTION
  2
ENTITIES
  0
POLYLINE
  5
41
  8
SignTorch_ELEPHANT_SILHOUET
 66
     1
 10
0.0
 20
0.0
 30
0.0
 70
     1
  0
VERTEX
  5
47
  8
SignTorch_ELEPHANT_SILHOUET
 10
11.9880473499722
 20
15.8078478953637
 30
0.0
 42
0.0003897622738993
  0
VERTEX
  5
48
  8
SignTorch_ELEPHANT_SILHOUET
 10
11.80896997272207
 20
15.79636892048989
 30
0.0
 42
0.018578198543831
  0
VERTEX
  5
49
  8
SignTorch_ELEPHANT_SILHOUET
 10
11.6490004749722
 20
15.7800041453637
 30
0.0
 42
0.0317960104262196
  0
VERTEX
  5
4A
  8
SignTorch_ELEPHANT_SILHOUET
 10
10.90731569786671
 20
15.62759638532643
 30
0.0
 42
0.0360528511050732
  0
VERTEX
  5
4B
  8
SignTorch_ELEPHANT_SILHOUET
 10
10.6658657093472
 20
15.5426447703637
 30
0.0
 42
0.038341509106426
  0
VERTEX
  5
4C
  8
SignTorch_ELEPHANT_SILHOUET
 10
10.47729354645661
 20
15.44278027541473
 30
0.0
 42
0.0564370315773015
  0
VERTEX
  5
4D
  8
SignTorch_ELEPHANT_SILHOUET
 10
10.40611155895657
 20
15.3856369578637
 30
0.0
 42
0.0567330132195951
  0
VERTEX
  5
4E
  8
SignTorch_ELEPHANT_SILHOUET
 10
10.37423606372123
 20
15.34525929792851
 30
0.0
 42
0.0671844345401072
  0
VERTEX
  5
4F
  8
SignTorch_ELEPHANT_SILHOUET
 10
10.35646995739407
 20
15.30555639145745
 30
0.0
 42
0.0659672348076638
  0
VERTEX
  5
50
  8
SignTorch_ELEPHANT_SILHOUET
 10
10.33968675122008
 20
15.19803502314188
 30
0.0
 42
0.0430719371422398
  0
VERTEX
  5
51
  8
SignTorch_ELEPHANT_SILHOUET
 10
10.35623314098782
 20
14.93570775864495
 30
0.0
 42
0.0188572278142083
  0
VERTEX
  5
52
  8
SignTorch_ELEPHANT_SILHOUET
 10
10.37664447007753
 20
14.82770891689819
 30
0.0
 42
0.0144373749846917
  0
VERTEX
  5
53
  8
SignTorch_ELEPHANT_SILHOUET
 10
10.4126254749722
 20
14.6887541453637
 30
0.0
 42
0.029081326438815
  0
VERTEX
  5
54
  8
SignTorch_ELEPHANT_SILHOUET
 10
10.44775380900304
 20
14.58957216015787
 30
0.0
 42
-0.1809556668440601
  0
VERTEX
  5
55
  8
SignTorch_ELEPHANT_SILHOUET
 10
10.4488285999722
 20
14.5630510203637
 30
0.0
 42
-0.1673181282328059
  0
VERTEX
  5
56
  8
SignTorch_ELEPHANT_SILHOUET
 10
10.43349655344504
 20
14.54284490254781
 30
0.0
 42
0.0000564350897856
  0
VERTEX
  5
57
  8
SignTorch_ELEPHANT_SILHOUET
 10
10.3742348499722
 20
14.5031447703637
 30
0.0
 42
0.0148845359821627
  0
VERTEX
  5
58
  8
SignTorch_ELEPHANT_SILHOUET
 10
10.33978400782648
 20
14.47854345940738
 30
0.0
 42
0.0133558756459368
  0
VERTEX
  5
59
  8
SignTorch_ELEPHANT_SILHOUET
 10
10.3030004749722
 20
14.4490041453637
 30
0.0
 42
-0.0138262466931333
  0
VERTEX
  5
5A
  8
SignTorch_ELEPHANT_SILHOUET
 10
10.25361389188236
 20
14.40942020019122
 30
0.0
 42
-0.0282394476125215
  0
VERTEX
  5
5B
  8
SignTorch_ELEPHANT_SILHOUET
 10
10.2278754749722
 20
14.3921291453637
 30
0.0
 42
0.0061095444700066
  0
VERTEX
  5
5C
  8
SignTorch_ELEPHANT_SILHOUET
 10
10.18284160101524
 20
14.36468549602394
 30
0.0
 42
0.0168681242111264
  0
VERTEX
  5
5D
  8
SignTorch_ELEPHANT_SILHOUET
 10
10.1670004749722
 20
14.3540041453637
 30
0.0
 42
0.0192802360158545
  0
VERTEX
  5
5E
  8
SignTorch_ELEPHANT_SILHOUET
 10
9.862837735482866
 20
14.11522852724905
 30
0.0
 42
0.0353570731756861
  0
VERTEX
  5
5F
  8
SignTorch_ELEPHANT_SILHOUET
 10
9.561424303097196
 20
13.8201467234887
 30
0.0
 42
0.0111730512134468
  0
VERTEX
  5
60
  8
SignTorch_ELEPHANT_SILHOUET
 10
9.455887652831198
 20
13.6956049862173
 30
0.0
 42
0.0009343644830024
  0
VERTEX
  5
61
  8
SignTorch_ELEPHANT_SILHOUET
 10
9.236000474972196
 20
13.4230041453637
 30
0.0
 42
-0.0136273320062813
  0
VERTEX
  5
62
  8
SignTorch_ELEPHANT_SILHOUET
 10
9.169778318238585
 20
13.34504185023216
 30
0.0
 42
0.031327823150434
  0
VERTEX
  5
63
  8
SignTorch_ELEPHANT_SILHOUET
 10
9.052000474972195
 20
13.1960041453637
 30
0.0
 42
0.022616763226879
  0
VERTEX
  5
64
  8
SignTorch_ELEPHANT_SILHOUET
 10
8.928561940029129
 20
12.99951407171749
 30
0.0
 42
0.0505964697578556
  0
VERTEX
  5
65
  8
SignTorch_ELEPHANT_SILHOUET
 10
8.839000474972197
 20
12.7960041453637
 30
0.0
 42
-0.0237083291224759
  0
VERTEX
  5
66
  8
SignTorch_ELEPHANT_SILHOUET
 10
8.636649079558058
 20
12.25984036196646
 30
0.0
 42
0.0115499504715548
  0
VERTEX
  5
67
  8
SignTorch_ELEPHANT_SILHOUET
 10
8.582814928097196
 20
12.1270607859887
 30
0.0
 42
0.0198279884047136
  0
VERTEX
  5
68
  8
SignTorch_ELEPHANT_SILHOUET
 10
8.536936857195784
 20
11.98974111162864
 30
0.0
 42
0.0327169615270037
  0
VERTEX
  5
69
  8
SignTorch_ELEPHANT_SILHOUET
 10
8.518000474972196
 20
11.9040041453637
 30
0.0
 42
0.0035364983179436
  0
VERTEX
  5
6A
  8
SignTorch_ELEPHANT_SILHOUET
 10
8.504050607412864
 20
11.8084015616433
 30
0.0
 42
0.0020825801914464
  0
VERTEX
  5
6B
  8
SignTorch_ELEPHANT_SILHOUET
 10
8.482187974972195
 20
11.6458010203637
 30
0.0
 42
0.0293477325741062
  0
VERTEX
  5
6C
  8
SignTorch_ELEPHANT_SILHOUET
 10
8.475189841567659
 20
11.54713754844642
 30
0.0
 42
0.0142287700931718
  0
VERTEX
  5
6D
  8
SignTorch_ELEPHANT_SILHOUET
 10
8.482750474972196
 20
11.0840041453637
 30
0.0
 42
0.0046274594714118
  0
VERTEX
  5
6E
  8
SignTorch_ELEPHANT_SILHOUET
 10
8.49526320420382
 20
10.85265807462706
 30
0.0
 42
-0.0587797682533618
  0
VERTEX
  5
6F
  8
SignTorch_ELEPHANT_SILHOUET
 10
8.492125474972196
 20
10.7947541453637
 30
0.0
 42
-0.0309626949199509
  0
VERTEX
  5
70
  8
SignTorch_ELEPHANT_SILHOUET
 10
8.485223592659636
 20
10.765730490463
 30
0.0
 42
-0.0076850626722286
  0
VERTEX
  5
71
  8
SignTorch_ELEPHANT_SILHOUET
 10
8.448505113644073
 20
10.65139428208245
 30
0.0
 42
-0.0335007141656806
  0
VERTEX
  5
72
  8
SignTorch_ELEPHANT_SILHOUET
 10
8.383150954364773
 20
10.49378845545343
 30
0.0
 42
0.0109660210640835
  0
VERTEX
  5
73
  8
SignTorch_ELEPHANT_SILHOUET
 10
8.310766099972197
 20
10.3392853953637
 30
0.0
 42
0.0158299615457917
  0
VERTEX
  5
74
  8
SignTorch_ELEPHANT_SILHOUET
 10
8.274412110893293
 20
10.2494539860105
 30
0.0
 42
0.005823106306048
  0
VERTEX
  5
75
  8
SignTorch_ELEPHANT_SILHOUET
 10
8.186268053097196
 20
10.0012541453637
 30
0.0
 42
0.0197242009830992
  0
VERTEX
  5
76
  8
SignTorch_ELEPHANT_SILHOUET
 10
8.108992107119612
 20
9.74244052018685
 30
0.0
 42
0.0489687710766626
  0
VERTEX
  5
77
  8
SignTorch_ELEPHANT_SILHOUET
 10
8.09239427380032
 20
9.634697504738703
 30
0.0
 42
0.0286059346035373
  0
VERTEX
  5
78
  8
SignTorch_ELEPHANT_SILHOUET
 10
8.092531001227679
 20
9.572745623909867
 30
0.0
 42
-0.0568327111765554
  0
VERTEX
  5
79
  8
SignTorch_ELEPHANT_SILHOUET
 10
8.079125474972196
 20
9.325379145363701
 30
0.0
 42
-0.0137955545324149
  0
VERTEX
  5
7A
  8
SignTorch_ELEPHANT_SILHOUET
 10
8.061478151801273
 20
9.236158026473138
 30
0.0
 42
0.0087533535835648
  0
VERTEX
  5
7B
  8
SignTorch_ELEPHANT_SILHOUET
 10
8.042932115597194
 20
9.147119379738701
 30
0.0
 42
0.0045128120389433
  0
VERTEX
  5
7C
  8
SignTorch_ELEPHANT_SILHOUET
 10
8.0291096698008
 20
9.07064867299089
 30
0.0
 42
-0.0396760205286286
  0
VERTEX
  5
7D
  8
SignTorch_ELEPHANT_SILHOUET
 10
8.016734849972195
 20
9.022004145363702
 30
0.0
 42
0.0184851843495882
  0
VERTEX
  5
7E
  8
SignTorch_ELEPHANT_SILHOUET
 10
8.005675376350482
 20
8.98513873809302
 30
0.0
 42
0.0862929778417279
  0
VERTEX
  5
7F
  8
SignTorch_ELEPHANT_SILHOUET
 10
8.001703599972195
 20
8.937004145363701
 30
0.0
 42
0.0742430590294814
  0
VERTEX
  5
80
  8
SignTorch_ELEPHANT_SILHOUET
 10
8.018396123517375
 20
8.868210667006855
 30
0.0
 42
0.0949742492448681
  0
VERTEX
  5
81
  8
SignTorch_ELEPHANT_SILHOUET
 10
8.048625474972196
 20
8.821629145363701
 30
0.0
 42
0.0102395969970401
  0
VERTEX
  5
82
  8
SignTorch_ELEPHANT_SILHOUET
 10
8.068877732027895
 20
8.801381003914443
 30
0.0
 42
-0.013428075011568
  0
VERTEX
  5
83
  8
SignTorch_ELEPHANT_SILHOUET
 10
8.089000474972195
 20
8.781004145363703
 30
0.0
 42
0.0526984792210609
  0
VERTEX
  5
84
  8
SignTorch_ELEPHANT_SILHOUET
 10
8.123183095284368
 20
8.751430833062162
 30
0.0
 42
0.1059089904729275
  0
VERTEX
  5
85
  8
SignTorch_ELEPHANT_SILHOUET
 10
8.166027818722196
 20
8.733472895363702
 30
0.0
 42
0.0702583067073459
  0
VERTEX
  5
86
  8
SignTorch_ELEPHANT_SILHOUET
 10
8.20610463046125
 20
8.731644954730703
 30
0.0
 42
-0.0081727297909278
  0
VERTEX
  5
87
  8
SignTorch_ELEPHANT_SILHOUET
 10
8.280324693722196
 20
8.737472895363702
 30
0.0
 42
-0.0390692689916521
  0
VERTEX
  5
88
  8
SignTorch_ELEPHANT_SILHOUET
 10
8.3569838897841
 20
8.736239935932897
 30
0.0
 42
0.0067048694282606
  0
VERTEX
  5
89
  8
SignTorch_ELEPHANT_SILHOUET
 10
8.498875474972195
 20
8.724754145363702
 30
0.0
 42
0.0212321656383681
  0
VERTEX
  5
8A
  8
SignTorch_ELEPHANT_SILHOUET
 10
8.603222877583116
 20
8.722154935098262
 30
0.0
 42
0.0273724466455604
  0
VERTEX
  5
8B
  8
SignTorch_ELEPHANT_SILHOUET
 10
8.684000474972196
 20
8.728004145363702
 30
0.0
 42
-0.0096383761106637
  0
VERTEX
  5
8C
  8
SignTorch_ELEPHANT_SILHOUET
 10
8.766317389214876
 20
8.736907462679037
 30
0.0
 42
0.080090457425769
  0
VERTEX
  5
8D
  8
SignTorch_ELEPHANT_SILHOUET
 10
8.817172349972196
 20
8.749801020363702
 30
0.0
 42
0.0140754479241556
  0
VERTEX
  5
8E
  8
SignTorch_ELEPHANT_SILHOUET
 10
8.88258875754081
 20
8.780302025601967
 30
0.0
 42
-0.0784316772757399
  0
VERTEX
  5
8F
  8
SignTorch_ELEPHANT_SILHOUET
 10
8.899812974972196
 20
8.785779535988702
 30
0.0
 42
-0.0223282858472925
  0
VERTEX
  5
90
  8
SignTorch_ELEPHANT_SILHOUET
 10
8.923035952034436
 20
8.788267030662062
 30
0.0
 42
0.2189825322983897
  0
VERTEX
  5
91
  8
SignTorch_ELEPHANT_SILHOUET
 10
8.936781724972196
 20
8.795655756691826
 30
0.0
 42
0.1613714504620018
  0
VERTEX
  5
92
  8
SignTorch_ELEPHANT_SILHOUET
 10
8.943223700816025
 20
8.814684029315128
 30
0.0
 42
0.0655087097732158
  0
VERTEX
  5
93
  8
SignTorch_ELEPHANT_SILHOUET
 10
8.930078599972196
 20
8.919824457863701
 30
0.0
 42
0.1360059952212153
  0
VERTEX
  5
94
  8
SignTorch_ELEPHANT_SILHOUET
 10
8.890719000293346
 20
8.987689165608238
 30
0.0
 42
-0.058239374941743
  0
VERTEX
  5
95
  8
SignTorch_ELEPHANT_SILHOUET
 10
8.864139146847196
 20
9.020587153176201
 30
0.0
 42
-0.0105108929487665
  0
VERTEX
  5
96
  8
SignTorch_ELEPHANT_SILHOUET
 10
8.838108882304182
 20
9.063796355938864
 30
0.0
 42
0.0099322843127336
  0
VERTEX
  5
97
  8
SignTorch_ELEPHANT_SILHOUET
 10
8.789859849972194
 20
9.144097895363704
 30
0.0
 42
-0.0114792783741002
  0
VERTEX
  5
98
  8
SignTorch_ELEPHANT_SILHOUET
 10
8.75046383357206
 20
9.210127084363906
 30
0.0
 42
-0.0676190988640226
  0
VERTEX
  5
99
  8
SignTorch_ELEPHANT_SILHOUET
 10
8.717028062862822
 20
9.293849360207453
 30
0.0
 42
-0.0411835318771334
  0
VERTEX
  5
9A
  8
SignTorch_ELEPHANT_SILHOUET
 10
8.703929030358902
 20
9.373695042653466
 30
0.0
 42
-0.0250485334029378
  0
VERTEX
  5
9B
  8
SignTorch_ELEPHANT_SILHOUET
 10
8.699916490597195
 20
9.506525629738702
 30
0.0
 42
-0.0228935908500119
  0
VERTEX
  5
9C
  8
SignTorch_ELEPHANT_SILHOUET
 10
8.7029792864649
 20
9.553099885452491
 30
0.0
 42
-0.0392250784251961
  0
VERTEX
  5
9D
  8
SignTorch_ELEPHANT_SILHOUET
 10
8.708125474972196
 20
9.579879145363702
 30
0.0
 42
-0.0177028201745915
  0
VERTEX
  5
9E
  8
SignTorch_ELEPHANT_SILHOUET
 10
8.719354029688992
 20
9.615711922069142
 30
0.0
 42
0.0117276723213804
  0
VERTEX
  5
9F
  8
SignTorch_ELEPHANT_SILHOUET
 10
8.741000474972196
 20
9.682004145363702
 30
0.0
 42
-0.0392846937968182
  0
VERTEX
  5
A0
  8
SignTorch_ELEPHANT_SILHOUET
 10
8.819332534435421
 20
9.88354924915988
 30
0.0
 42
-0.1060208162694524
  0
VERTEX
  5
A1
  8
SignTorch_ELEPHANT_SILHOUET
 10
9.024000474972196
 20
10.1470041453637
 30
0.0
 42
-0.0165455621428659
  0
VERTEX
  5
A2
  8
SignTorch_ELEPHANT_SILHOUET
 10
9.1526897236194
 20
10.24812015919735
 30
0.0
 42
0.0289571914679996
  0
VERTEX
  5
A3
  8
SignTorch_ELEPHANT_SILHOUET
 10
9.22061400036282
 20
10.30427123520745
 30
0.0
 42
0.0495231600620717
  0
VERTEX
  5
A4
  8
SignTorch_ELEPHANT_SILHOUET
 10
9.288647616089673
 20
10.38135123104786
 30
0.0
 42
0.027369263051053
  0
VERTEX
  5
A5
  8
SignTorch_ELEPHANT_SILHOUET
 10
9.339000474972197
 20
10.4600041453637
 30
0.0
 42
-0.0085277457852436
  0
VERTEX
  5
A6
  8
SignTorch_ELEPHANT_SILHOUET
 10
9.3973442287846
 20
10.55917614434285
 30
0.0
 42
-0.0492425138806069
  0
VERTEX
  5
A7
  8
SignTorch_ELEPHANT_SILHOUET
 10
9.438123521847196
 20
10.6131271922387
 30
0.0
 42
-0.1341421537161424
  0
VERTEX
  5
A8
  8
SignTorch_ELEPHANT_SILHOUET
 10
9.550100351575963
 20
10.68309090298366
 30
0.0
 42
-0.0314858322948668
  0
VERTEX
  5
A9
  8
SignTorch_ELEPHANT_SILHOUET
 10
9.649594957394072
 20
10.70626269028558
 30
0.0
 42
0.0040330462972122
  0
VERTEX
  5
AA
  8
SignTorch_ELEPHANT_SILHOUET
 10
9.743372603511933
 20
10.72274005138121
 30
0.0
 42
0.0089211116322468
  0
VERTEX
  5
AB
  8
SignTorch_ELEPHANT_SILHOUET
 10
9.785562974972196
 20
10.7312853953637
 30
0.0
 42
0.0056132872347288
  0
VERTEX
  5
AC
  8
SignTorch_ELEPHANT_SILHOUET
 10
10.03475394758341
 20
10.7893446604078
 30
0.0
 42
-0.0234485949685949
  0
VERTEX
  5
AD
  8
SignTorch_ELEPHANT_SILHOUET
 10
10.0975375843472
 20
10.80163061020745
 30
0.0
 42
-0.0852498676115763
  0
VERTEX
  5
AE
  8
SignTorch_ELEPHANT_SILHOUET
 10
10.12779675431498
 20
10.80091236673881
 30
0.0
 42
-0.1915914493621824
  0
VERTEX
  5
AF
  8
SignTorch_ELEPHANT_SILHOUET
 10
10.15226609997219
 20
10.7851447703637
 30
0.0
 42
-0.1158210344433789
  0
VERTEX
  5
B0
  8
SignTorch_ELEPHANT_SILHOUET
 10
10.16142112253987
 20
10.76282016315146
 30
0.0
 42
-0.0508353294329182
  0
VERTEX
  5
B1
  8
SignTorch_ELEPHANT_SILHOUET
 10
10.1645180530972
 20
10.7085217234887
 30
0.0
 42
-0.0189706941769518
  0
VERTEX
  5
B2
  8
SignTorch_ELEPHANT_SILHOUET
 10
10.16135714062951
 20
10.67031619555993
 30
0.0
 42
0.0425692437755148
  0
VERTEX
  5
B3
  8
SignTorch_ELEPHANT_SILHOUET
 10
10.1600004749722
 20
10.6320041453637
 30
0.0
 42
0.0106292034996235
  0
VERTEX
  5
B4
  8
SignTorch_ELEPHANT_SILHOUET
 10
10.16523813702445
 20
10.55830469559393
 30
0.0
 42
-0.0622968802800584
  0
VERTEX
  5
B5
  8
SignTorch_ELEPHANT_SILHOUET
 10
10.1639555530972
 20
10.5185197703637
 30
0.0
 42
-0.1153095264958179
  0
VERTEX
  5
B6
  8
SignTorch_ELEPHANT_SILHOUET
 10
10.15028986954629
 20
10.48491798754712
 30
0.0
 42
0.0150395900513315
  0
VERTEX
  5
B7
  8
SignTorch_ELEPHANT_SILHOUET
 10
10.1131196155972
 20
10.4288947703637
 30
0.0
 42
0.0145354601960699
  0
VERTEX
  5
B8
  8
SignTorch_ELEPHANT_SILHOUET
 10
10.07358621081634
 20
10.36090040819301
 30
0.0
 42
0.0053453927208884
  0
VERTEX
  5
B9
  8
SignTorch_ELEPHANT_SILHOUET
 10
9.973537584347195
 20
10.1719143016137
 30
0.0
 42
0.020146137575852
  0
VERTEX
  5
BA
  8
SignTorch_ELEPHANT_SILHOUET
 10
9.862987653481657
 20
9.934577564660607
 30
0.0
 42
0.0457456719441704
  0
VERTEX
  5
BB
  8
SignTorch_ELEPHANT_SILHOUET
 10
9.82839280895657
 20
9.824381586769954
 30
0.0
 42
0.0181864745394695
  0
VERTEX
  5
BC
  8
SignTorch_ELEPHANT_SILHOUET
 10
9.82156597230472
 20
9.78608273145488
 30
0.0
 42
-0.0280571824407042
  0
VERTEX
  5
BD
  8
SignTorch_ELEPHANT_SILHOUET
 10
9.813984849972195
 20
9.747926020363703
 30
0.0
 42
-0.0025046457869067
  0
VERTEX
  5
BE
  8
SignTorch_ELEPHANT_SILHOUET
 10
9.800941530215022
 20
9.698344266888723
 30
0.0
 42
0.055041480967656
  0
VERTEX
  5
BF
  8
SignTorch_ELEPHANT_SILHOUET
 10
9.794932115597195
 20
9.6591857859887
 30
0.0
 42
0.0123559798868378
  0
VERTEX
  5
C0
  8
SignTorch_ELEPHANT_SILHOUET
 10
9.79428113736153
 20
9.62218796827157
 30
0.0
 42
-0.0263666768442788
  0
VERTEX
  5
C1
  8
SignTorch_ELEPHANT_SILHOUET
 10
9.792594224972195
 20
9.585222895363701
 30
0.0
 42
-0.0583009795520151
  0
VERTEX
  5
C2
  8
SignTorch_ELEPHANT_SILHOUET
 10
9.75863044455497
 20
9.429540260287949
 30
0.0
 42
0.0604629173964501
  0
VERTEX
  5
C3
  8
SignTorch_ELEPHANT_SILHOUET
 10
9.740703599972193
 20
9.345633051613703
 30
0.0
 42
0.0193464345331408
  0
VERTEX
  5
C4
  8
SignTorch_ELEPHANT_SILHOUET
 10
9.737514348181397
 20
9.283176728193709
 30
0.0
 42
-0.0218027412214662
  0
VERTEX
  5
C5
  8
SignTorch_ELEPHANT_SILHOUET
 10
9.731021959347196
 20
9.167217035988703
 30
0.0
 42
0.0223572146435466
  0
VERTEX
  5
C6
  8
SignTorch_ELEPHANT_SILHOUET
 10
9.725536280757014
 20
9.067252981832981
 30
0.0
 42
0.1293658997632729
  0
VERTEX
  5
C7
  8
SignTorch_ELEPHANT_SILHOUET
 10
9.754400865597194
 20
8.952869379738702
 30
0.0
 42
0.0605018012349343
  0
VERTEX
  5
C8
  8
SignTorch_ELEPHANT_SILHOUET
 10
9.781821561066682
 20
8.914891243297696
 30
0.0
 42
0.0859133637883485
  0
VERTEX
  5
C9
  8
SignTorch_ELEPHANT_SILHOUET
 10
9.808115709347195
 20
8.894769770363702
 30
0.0
 42
0.0692476642807539
  0
VERTEX
  5
CA
  8
SignTorch_ELEPHANT_SILHOUET
 10
9.883254052083256
 20
8.867893758783357
 30
0.0
 42
0.0386026285288545
  0
VERTEX
  5
CB
  8
SignTorch_ELEPHANT_SILHOUET
 10
10.10226609997219
 20
8.839691645363702
 30
0.0
 42
0.0242188854976333
  0
VERTEX
  5
CC
  8
SignTorch_ELEPHANT_SILHOUET
 10
10.24141196415349
 20
8.839347995444225
 30
0.0
 42
0.0198240736552633
  0
VERTEX
  5
CD
  8
SignTorch_ELEPHANT_SILHOUET
 10
10.4107504749722
 20
8.853879145363702
 30
0.0
 42
0.0345909042351436
  0
VERTEX
  5
CE
  8
SignTorch_ELEPHANT_SILHOUET
 10
10.55267701657704
 20
8.881822376499093
 30
0.0
 42
0.0688789093834452
  0
VERTEX
  5
CF
  8
SignTorch_ELEPHANT_SILHOUET
 10
10.5965864124722
 20
8.900443598488701
 30
0.0
 42
0.089335173554979
  0
VERTEX
  5
D0
  8
SignTorch_ELEPHANT_SILHOUET
 10
10.61581388129764
 20
8.91719990410261
 30
0.0
 42
0.1062890020272499
  0
VERTEX
  5
D1
  8
SignTorch_ELEPHANT_SILHOUET
 10
10.62543846325345
 20
8.936432856301202
 30
0.0
 42
0.0991523472240087
  0
VERTEX
  5
D2
  8
SignTorch_ELEPHANT_SILHOUET
 10
10.62799197448165
 20
8.983202721140351
 30
0.0
 42
0.1018768175389542
  0
VERTEX
  5
D3
  8
SignTorch_ELEPHANT_SILHOUET
 10
10.5861528187222
 20
9.099199457863703
 30
0.0
 42
0.0486243368929868
  0
VERTEX
  5
D4
  8
SignTorch_ELEPHANT_SILHOUET
 10
10.548827996732
 20
9.148667130854298
 30
0.0
 42
-0.0506520601738121
  0
VERTEX
  5
D5
  8
SignTorch_ELEPHANT_SILHOUET
 10
10.5117035999722
 20
9.198285395363701
 30
0.0
 42
-0.0326310468216323
  0
VERTEX
  5
D6
  8
SignTorch_ELEPHANT_SILHOUET
 10
10.4874346542904
 20
9.245372974302882
 30
0.0
 42
0.0317304391350569
  0
VERTEX
  5
D7
  8
SignTorch_ELEPHANT_SILHOUET
 10
10.4632504749722
 20
9.292504145363703
 30
0.0
 42
-0.0083862534832538
  0
VERTEX
  5
D8
  8
SignTorch_ELEPHANT_SILHOUET
 10
10.44243813032576
 20
9.328789693200605
 30
0.0
 42
-0.06047532739205
  0
VERTEX
  5
D9
  8
SignTorch_ELEPHANT_SILHOUET
 10
10.4250034046597
 20
9.372040278176202
 30
0.0
 42
-0.0292596500788931
  0
VERTEX
  5
DA
  8
SignTorch_ELEPHANT_SILHOUET
 10
10.41575422741409
 20
9.416776186190448
 30
0.0
 42
-0.01697085987018
  0
VERTEX
  5
DB
  8
SignTorch_ELEPHANT_SILHOUET
 10
10.40700047497219
 20
9.495004145363701
 30
0.0
 42
-0.0437394770609072
  0
VERTEX
  5
DC
  8
SignTorch_ELEPHANT_SILHOUET
 10
10.40783801501579
 20
9.5793906754625
 30
0.0
 42
-0.0435902287489583
  0
VERTEX
  5
DD
  8
SignTorch_ELEPHANT_SILHOUET
 10
10.44985374645657
 20
9.804561762551202
 30
0.0
 42
-0.0301871134677601
  0
VERTEX
  5
DE
  8
SignTorch_ELEPHANT_SILHOUET
 10
10.47948152779809
 20
9.890511614923666
 30
0.0
 42
-0.0397969426990686
  0
VERTEX
  5
DF
  8
SignTorch_ELEPHANT_SILHOUET
 10
10.5108481312222
 20
9.951977289894952
 30
0.0
 42
-0.0708507098590289
  0
VERTEX
  5
E0
  8
SignTorch_ELEPHANT_SILHOUET
 10
10.65014419463733
 20
10.11976585086839
 30
0.0
 42
-0.0337279214390777
  0
VERTEX
  5
E1
  8
SignTorch_ELEPHANT_SILHOUET
 10
10.82157859997219
 20
10.2553127391137
 30
0.0
 42
-0.0145078350486226
  0
VERTEX
  5
E2
  8
SignTorch_ELEPHANT_SILHOUET
 10
10.96129104886406
 20
10.34537300525023
 30
0.0
 42
0.034782541920814
  0
VERTEX
  5
E3
  8
SignTorch_ELEPHANT_SILHOUET
 10
11.03450047497219
 20
10.3968791453637
 30
0.0
 42
0.0444155840763856
  0
VERTEX
  5
E4
  8
SignTorch_ELEPHANT_SILHOUET
 10
11.07910480099963
 20
10.44025284607903
 30
0.0
 42
0.0314302461716019
  0
VERTEX
  5
E5
  8
SignTorch_ELEPHANT_SILHOUET
 10
11.16398167614407
 20
10.55242064926995
 30
0.0
 42
0.0511913663771394
  0
VERTEX
  5
E6
  8
SignTorch_ELEPHANT_SILHOUET
 10
11.21451407520448
 20
10.64886203830394
 30
0.0
 42
0.0157828324927026
  0
VERTEX
  5
E7
  8
SignTorch_ELEPHANT_SILHOUET
 10
11.2405453968472
 20
10.7204455516137
 30
0.0
 42
-0.015057410460537
  0
VERTEX
  5
E8
  8
SignTorch_ELEPHANT_SILHOUET
 10
11.25246873913333
 20
10.7533822125198
 30
0.0
 42
-0.1939691684652369
  0
VERTEX
  5
E9
  8
SignTorch_ELEPHANT_SILHOUET
 10
11.27668992809719
 20
10.7788342234887
 30
0.0
 42
-0.3449588424413798
  0
VERTEX
  5
EA
  8
SignTorch_ELEPHANT_SILHOUET
 10
11.3006473641047
 20
10.77303837802008
 30
0.0
 42
-0.1222206073506356
  0
VERTEX
  5
EB
  8
SignTorch_ELEPHANT_SILHOUET
 10
11.3125141468472
 20
10.7468771922387
 30
0.0
 42
-0.031748238203989
  0
VERTEX
  5
EC
  8
SignTorch_ELEPHANT_SILHOUET
 10
11.31523002742732
 20
10.724188639331
 30
0.0
 42
0.0044517968118588
  0
VERTEX
  5
ED
  8
SignTorch_ELEPHANT_SILHOUET
 10
11.3211254749722
 20
10.6330041453637
 30
0.0
 42
-0.010828328562703
  0
VERTEX
  5
EE
  8
SignTorch_ELEPHANT_SILHOUET
 10
11.32514185512694
 20
10.55555506401964
 30
0.0
 42
-0.0024192476353452
  0
VERTEX
  5
EF
  8
SignTorch_ELEPHANT_SILHOUET
 10
11.3339282093472
 20
10.2085842234887
 30
0.0
 42
-0.0142965985127527
  0
VERTEX
  5
F0
  8
SignTorch_ELEPHANT_SILHOUET
 10
11.33141250617103
 20
9.898474118142694
 30
0.0
 42
-0.0295083448148241
  0
VERTEX
  5
F1
  8
SignTorch_ELEPHANT_SILHOUET
 10
11.3170453968472
 20
9.748810785988702
 30
0.0
 42
-0.0262158756459538
  0
VERTEX
  5
F2
  8
SignTorch_ELEPHANT_SILHOUET
 10
11.29754787827973
 20
9.656025455811276
 30
0.0
 42
0.04824190910695
  0
VERTEX
  5
F3
  8
SignTorch_ELEPHANT_SILHOUET
 10
11.2689535999722
 20
9.482301020363701
 30
0.0
 42
0.0264954624430611
  0
VERTEX
  5
F4
  8
SignTorch_ELEPHANT_SILHOUET
 10
11.26694388577772
 20
9.33609932991787
 30
0.0
 42
-0.0066357673711365
  0
VERTEX
  5
F5
  8
SignTorch_ELEPHANT_SILHOUET
 10
11.27073948864407
 20
9.189933100441827
 30
0.0
 42
-0.0179276466446095
  0
VERTEX
  5
F6
  8
SignTorch_ELEPHANT_SILHOUET
 10
11.26882077142682
 20
9.107105013391932
 30
0.0
 42
-0.0617568691084856
  0
VERTEX
  5
F7
  8
SignTorch_ELEPHANT_SILHOUET
 10
11.2478461780972
 20
8.993371332863703
 30
0.0
 42
-0.011478057003316
  0
VERTEX
  5
F8
  8
SignTorch_ELEPHANT_SILHOUET
 10
11.22007084268483
 20
8.911931268225235
 30
0.0
 42
0.035289748363454
  0
VERTEX
  5
F9
  8
SignTorch_ELEPHANT_SILHOUET
 10
11.1962016468472
 20
8.829261957863702
 30
0.0
 42
0.0117195252376045
  0
VERTEX
  5
FA
  8
SignTorch_ELEPHANT_SILHOUET
 10
11.18260340393301
 20
8.75743234480347
 30
0.0
 42
-0.0474616000783685
  0
VERTEX
  5
FB
  8
SignTorch_ELEPHANT_SILHOUET
 10
11.16391453747219
 20
8.686756098488702
 30
0.0
 42
-0.0374253879475169
  0
VERTEX
  5
FC
  8
SignTorch_ELEPHANT_SILHOUET
 10
11.13963893252672
 20
8.633569149364938
 30
0.0
 42
0.0243914283355511
  0
VERTEX
  5
FD
  8
SignTorch_ELEPHANT_SILHOUET
 10
11.0920004749722
 20
8.536004145363702
 30
0.0
 42
0.0494529315833314
  0
VERTEX
  5
FE
  8
SignTorch_ELEPHANT_SILHOUET
 10
11.07161026292359
 20
8.471602376481494
 30
0.0
 42
0.143195176468157
  0
VERTEX
  5
FF
  8
SignTorch_ELEPHANT_SILHOUET
 10
11.0793442249722
 20
8.370910395363701
 30
0.0
 42
0.0557030082071738
  0
VERTEX
  5
100
  8
SignTorch_ELEPHANT_SILHOUET
 10
11.10364992990784
 20
8.32334499334898
 30
0.0
 42
0.0807843367434268
  0
VERTEX
  5
101
  8
SignTorch_ELEPHANT_SILHOUET
 10
11.12870359997219
 20
8.296176020363703
 30
0.0
 42
0.0319688383414415
  0
VERTEX
  5
102
  8
SignTorch_ELEPHANT_SILHOUET
 10
11.17334798546574
 20
8.265584167865775
 30
0.0
 42
-0.0318362241145661
  0
VERTEX
  5
103
  8
SignTorch_ELEPHANT_SILHOUET
 10
11.2180004749722
 20
8.235004145363703
 30
0.0
 42
0.0287908537966669
  0
VERTEX
  5
104
  8
SignTorch_ELEPHANT_SILHOUET
 10
11.26600347945804
 20
8.201698633088165
 30
0.0
 42
0.1352589898849139
  0
VERTEX
  5
105
  8
SignTorch_ELEPHANT_SILHOUET
 10
11.33631346325345
 20
8.181471918801204
 30
0.0
 42
0.0588956100382852
  0
VERTEX
  5
106
  8
SignTorch_ELEPHANT_SILHOUET
 10
11.3834359651314
 20
8.18650600805587
 30
0.0
 42
-0.0473315931541191
  0
VERTEX
  5
107
  8
SignTorch_ELEPHANT_SILHOUET
 10
11.47070799450345
 20
8.197870356301202
 30
0.0
 42
-0.019015169001784
  0
VERTEX
  5
108
  8
SignTorch_ELEPHANT_SILHOUET
 10
11.54079136853945
 20
8.197651034478485
 30
0.0
 42
0.0212105766066505
  0
VERTEX
  5
109
  8
SignTorch_ELEPHANT_SILHOUET
 10
11.8211254749722
 20
8.198004145363702
 30
0.0
 42
0.0299926335013916
  0
VERTEX
  5
10A
  8
SignTorch_ELEPHANT_SILHOUET
 10
12.02845854141615
 20
8.219569766523037
 30
0.0
 42
0.0601993610297662
  0
VERTEX
  5
10B
  8
SignTorch_ELEPHANT_SILHOUET
 10
12.09390529064602
 20
8.238663264016047
 30
0.0
 42
0.0866555051088207
  0
VERTEX
  5
10C
  8
SignTorch_ELEPHANT_SILHOUET
 10
12.13575604891092
 20
8.265903188042262
 30
0.0
 42
-0.1033805407913503
  0
VERTEX
  5
10D
  8
SignTorch_ELEPHANT_SILHOUET
 10
12.1587660999722
 20
8.279816645363704
 30
0.0
 42
-0.1118482340809473
  0
VERTEX
  5
10E
  8
SignTorch_ELEPHANT_SILHOUET
 10
12.18434368436277
 20
8.282772283016794
 30
0.0
 42
0.3108503154778832
  0
VERTEX
  5
10F
  8
SignTorch_ELEPHANT_SILHOUET
 10
12.20700047497219
 20
8.295004145363702
 30
0.0
 42
0.1631462433722108
  0
VERTEX
  5
110
  8
SignTorch_ELEPHANT_SILHOUET
 10
12.21146561140959
 20
8.324637670189336
 30
0.0
 42
-0.0458007410137506
  0
VERTEX
  5
111
  8
SignTorch_ELEPHANT_SILHOUET
 10
12.2090004749722
 20
8.354504145363702
 30
0.0
 42
-0.1591599412625382
  0
VERTEX
  5
112
  8
SignTorch_ELEPHANT_SILHOUET
 10
12.21394837356272
 20
8.369195520412596
 30
0.0
 42
-0.1923051989453551
  0
VERTEX
  5
113
  8
SignTorch_ELEPHANT_SILHOUET
 10
12.22500877575345
 20
8.375981196144952
 30
0.0
 42
-0.107061850980078
  0
VERTEX
  5
114
  8
SignTorch_ELEPHANT_SILHOUET
 10
12.24700539789386
 20
8.375035017127844
 30
0.0
 42
0.073954188576503
  0
VERTEX
  5
115
  8
SignTorch_ELEPHANT_SILHOUET
 10
12.3345160999722
 20
8.365488520363703
 30
0.0
 42
0.0439693768183996
  0
VERTEX
  5
116
  8
SignTorch_ELEPHANT_SILHOUET
 10
12.44084077358914
 20
8.37904990694387
 30
0.0
 42
-0.011656833849555
  0
VERTEX
  5
117
  8
SignTorch_ELEPHANT_SILHOUET
 10
12.54606883434719
 20
8.399443598488702
 30
0.0
 42
-0.0187663723014976
  0
VERTEX
  5
118
  8
SignTorch_ELEPHANT_SILHOUET
 10
12.64138688822458
 20
8.411962481192594
 30
0.0
 42
0.0383830705416901
  0
VERTEX
  5
119
  8
SignTorch_ELEPHANT_SILHOUET
 10
12.7361410999722
 20
8.428207270363702
 30
0.0
 42
0.048280005848033
  0
VERTEX
  5
11A
  8
SignTorch_ELEPHANT_SILHOUET
 10
12.77846563303524
 20
8.443322235137888
 30
0.0
 42
0.0500659274737236
  0
VERTEX
  5
11B
  8
SignTorch_ELEPHANT_SILHOUET
 10
12.84228172497219
 20
8.481535395363704
 30
0.0
 42
0.0741335635994797
  0
VERTEX
  5
11C
  8
SignTorch_ELEPHANT_SILHOUET
 10
12.86705272234645
 20
8.50641483998663
 30
0.0
 42
0.1388184799134
  0
VERTEX
  5
11D
  8
SignTorch_ELEPHANT_SILHOUET
 10
12.8803559437222
 20
8.541828364113702
 30
0.0
 42
0.067468383787735
  0
VERTEX
  5
11E
  8
SignTorch_ELEPHANT_SILHOUET
 10
12.87861868081592
 20
8.575688008359068
 30
0.0
 42
0.0297484147069581
  0
VERTEX
  5
11F
  8
SignTorch_ELEPHANT_SILHOUET
 10
12.8600004749722
 20
8.650004145363702
 30
0.0
 42
0.0708144520044765
  0
VERTEX
  5
120
  8
SignTorch_ELEPHANT_SILHOUET
 10
12.8291545929267
 20
8.714460116861163
 30
0.0
 42
0.0645942360040937
  0
VERTEX
  5
121
  8
SignTorch_ELEPHANT_SILHOUET
 10
12.77773484997219
 20
8.773472895363701
 30
0.0
 42
0.0631942483565442
  0
VERTEX
  5
122
  8
SignTorch_ELEPHANT_SILHOUET
 10
12.74870103096112
 20
8.793285637133788
 30
0.0
 42
-0.0689085743369904
  0
VERTEX
  5
123
  8
SignTorch_ELEPHANT_SILHOUET
 10
12.69520359997219
 20
8.8306916453637
 30
0.0
 42
-0.031534166545214
  0
VERTEX
  5
124
  8
SignTorch_ELEPHANT_SILHOUET
 10
12.64023620761206
 20
8.88853003980693
 30
0.0
 42
-0.0279085952116451
  0
VERTEX
  5
125
  8
SignTorch_ELEPHANT_SILHOUET
 10
12.5863266468472
 20
8.960769770363704
 30
0.0
 42
-0.0956880806479316
  0
VERTEX
  5
126
  8
SignTorch_ELEPHANT_SILHOUET
 10
12.54567656938967
 20
9.058408714523528
 30
0.0
 42
-0.0370962506985536
  0
VERTEX
  5
127
  8
SignTorch_ELEPHANT_SILHOUET
 10
12.5370004749722
 20
9.125004145363704
 30
0.0
 42
-0.0161484296621544
  0
VERTEX
  5
128
  8
SignTorch_ELEPHANT_SILHOUET
 10
12.53527944032904
 20
9.19949969500176
 30
0.0
 42
0.0131808901920132
  0
VERTEX
  5
129
  8
SignTorch_ELEPHANT_SILHOUET
 10
12.5340004749722
 20
9.274004145363703
 30
0.0
 42
-0.0228090971933876
  0
VERTEX
  5
12A
  8
SignTorch_ELEPHANT_SILHOUET
 10
12.53431781223577
 20
9.426173174295837
 30
0.0
 42
-0.0061938205655307
  0
VERTEX
  5
12B
  8
SignTorch_ELEPHANT_SILHOUET
 10
12.54700047497219
 20
9.637004145363703
 30
0.0
 42
-0.0551133678749702
  0
VERTEX
  5
12C
  8
SignTorch_ELEPHANT_SILHOUET
 10
12.57093156046942
 20
9.76661186995295
 30
0.0
 42
-0.0229988376964091
  0
VERTEX
  5
12D
  8
SignTorch_ELEPHANT_SILHOUET
 10
12.61862547497219
 20
9.902004145363701
 30
0.0
 42
-0.0113189052506219
  0
VERTEX
  5
12E
  8
SignTorch_ELEPHANT_SILHOUET
 10
12.67446876000442
 20
10.03143715479241
 30
0.0
 42
0.0125220489768945
  0
VERTEX
  5
12F
  8
SignTorch_ELEPHANT_SILHOUET
 10
12.7300004749722
 20
10.1610041453637
 30
0.0
 42
0.0048610631874833
  0
VERTEX
  5
130
  8
SignTorch_ELEPHANT_SILHOUET
 10
12.81042875415566
 20
10.36827656069343
 30
0.0
 42
-0.015809482202316
  0
VERTEX
  5
131
  8
SignTorch_ELEPHANT_SILHOUET
 10
12.89537547497219
 20
10.5737385203637
 30
0.0
 42
-0.0127817689455191
  0
VERTEX
  5
132
  8
SignTorch_ELEPHANT_SILHOUET
 10
12.94997136287895
 20
10.68698625151987
 30
0.0
 42
0.0340347133671013
  0
VERTEX
  5
133
  8
SignTorch_ELEPHANT_SILHOUET
 10
13.1488842640347
 20
11.14875951645745
 30
0.0
 42
0.0109678252489484
  0
VERTEX
  5
134
  8
SignTorch_ELEPHANT_SILHOUET
 10
13.21423954131726
 20
11.34813630659078
 30
0.0
 42
0.004391987027889
  0
VERTEX
  5
135
  8
SignTorch_ELEPHANT_SILHOUET
 10
13.3620629749722
 20
11.8507541453637
 30
0.0
 42
0.0074150290216301
  0
VERTEX
  5
136
  8
SignTorch_ELEPHANT_SILHOUET
 10
13.41861045854954
 20
12.06126286248845
 30
0.0
 42
0.0206962368848386
  0
VERTEX
  5
137
  8
SignTorch_ELEPHANT_SILHOUET
 10
13.4560004749722
 20
12.2400041453637
 30
0.0
 42
-0.0150301450034086
  0
VERTEX
  5
138
  8
SignTorch_ELEPHANT_SILHOUET
 10
13.46057222932088
 20
12.26316536654004
 30
0.0
 42
-0.3642771688112002
  0
VERTEX
  5
139
  8
SignTorch_ELEPHANT_SILHOUET
 10
13.4782719593472
 20
12.2765422313012
 30
0.0
 42
-0.0985460538470416
  0
VERTEX
  5
13A
  8
SignTorch_ELEPHANT_SILHOUET
 10
13.49315001286831
 20
12.27277571264193
 30
0.0
 42
-0.0027811456192799
  0
VERTEX
  5
13B
  8
SignTorch_ELEPHANT_SILHOUET
 10
13.54820359997219
 20
12.2461838328637
 30
0.0
 42
0.0231129339576911
  0
VERTEX
  5
13C
  8
SignTorch_ELEPHANT_SILHOUET
 10
13.6807281782672
 20
12.18869246257258
 30
0.0
 42
-0.0305693613053257
  0
VERTEX
  5
13D
  8
SignTorch_ELEPHANT_SILHOUET
 10
13.8123813343472
 20
12.1292326609887
 30
0.0
 42
-0.031612262879224
  0
VERTEX
  5
13E
  8
SignTorch_ELEPHANT_SILHOUET
 10
13.88203071969091
 20
12.08667005745505
 30
0.0
 42
-0.0340355609172466
  0
VERTEX
  5
13F
  8
SignTorch_ELEPHANT_SILHOUET
 10
13.9410004749722
 20
12.0390041453637
 30
0.0
 42
-0.0740249606263573
  0
VERTEX
  5
140
  8
SignTorch_ELEPHANT_SILHOUET
 10
13.97008490615019
 20
12.00268152402436
 30
0.0
 42
-0.0805769178857714
  0
VERTEX
  5
141
  8
SignTorch_ELEPHANT_SILHOUET
 10
13.98542308239407
 20
11.96273339341058
 30
0.0
 42
-0.0458144474881514
  0
VERTEX
  5
142
  8
SignTorch_ELEPHANT_SILHOUET
 10
13.991295245272
 20
11.91154833413073
 30
0.0
 42
0.0412211743512145
  0
VERTEX
  5
143
  8
SignTorch_ELEPHANT_SILHOUET
 10
14.00132859997219
 20
11.8163947703637
 30
0.0
 42
0.064999466207945
  0
VERTEX
  5
144
  8
SignTorch_ELEPHANT_SILHOUET
 10
14.04063492187862
 20
11.6966896988555
 30
0.0
 42
-0.1006428640476386
  0
VERTEX
  5
145
  8
SignTorch_ELEPHANT_SILHOUET
 10
14.07137547497219
 20
11.5745041453637
 30
0.0
 42
-0.0139345330756871
  0
VERTEX
  5
146
  8
SignTorch_ELEPHANT_SILHOUET
 10
14.07217524487802
 20
11.53006799699362
 30
0.0
 42
0.0378209777029158
  0
VERTEX
  5
147
  8
SignTorch_ELEPHANT_SILHOUET
 10
14.08385008434719
 20
11.3527189891137
 30
0.0
 42
0.0374846128617264
  0
VERTEX
  5
148
  8
SignTorch_ELEPHANT_SILHOUET
 10
14.13684704860408
 20
11.11150720967821
 30
0.0
 42
0.0238028598137374
  0
VERTEX
  5
149
  8
SignTorch_ELEPHANT_SILHOUET
 10
14.26600047497219
 20
10.7450041453637
 30
0.0
 42
0.0208522303627637
  0
VERTEX
  5
14A
  8
SignTorch_ELEPHANT_SILHOUET
 10
14.2846710850755
 20
10.70408894800308
 30
0.0
 42
0.0230292937263594
  0
VERTEX
  5
14B
  8
SignTorch_ELEPHANT_SILHOUET
 10
14.3047602405972
 20
10.6686623484887
 30
0.0
 42
-0.0196084046604087
  0
VERTEX
  5
14C
  8
SignTorch_ELEPHANT_SILHOUET
 10
14.32316367984332
 20
10.63671954284693
 30
0.0
 42
-0.0706791742718343
  0
VERTEX
  5
14D
  8
SignTorch_ELEPHANT_SILHOUET
 10
14.3401430530972
 20
10.5890764109887
 30
0.0
 42
-0.0149783691293121
  0
VERTEX
  5
14E
  8
SignTorch_ELEPHANT_SILHOUET
 10
14.34640219402977
 20
10.55289004189426
 30
0.0
 42
0.0320003125132595
  0
VERTEX
  5
14F
  8
SignTorch_ELEPHANT_SILHOUET
 10
14.37634471325345
 20
10.40909667466058
 30
0.0
 42
0.0342105329987542
  0
VERTEX
  5
150
  8
SignTorch_ELEPHANT_SILHOUET
 10
14.46190328751014
 20
10.16542346542642
 30
0.0
 42
0.0196991028345731
  0
VERTEX
  5
151
  8
SignTorch_ELEPHANT_SILHOUET
 10
14.6550004749722
 20
9.761004145363701
 30
0.0
 42
0.0438477184127033
  0
VERTEX
  5
152
  8
SignTorch_ELEPHANT_SILHOUET
 10
14.78516083266743
 20
9.559045582147656
 30
0.0
 42
0.0718912646323354
  0
VERTEX
  5
153
  8
SignTorch_ELEPHANT_SILHOUET
 10
14.89100047497219
 20
9.457004145363701
 30
0.0
 42
0.0099374587603443
  0
VERTEX
  5
154
  8
SignTorch_ELEPHANT_SILHOUET
 10
15.00199813271251
 20
9.38045895650557
 30
0.0
 42
-0.0412901197686286
  0
VERTEX
  5
155
  8
SignTorch_ELEPHANT_SILHOUET
 10
15.1079848499722
 20
9.297113520363702
 30
0.0
 42
-0.0254395316585358
  0
VERTEX
  5
156
  8
SignTorch_ELEPHANT_SILHOUET
 10
15.16642817660996
 20
9.23696451974132
 30
0.0
 42
-0.023345124100572
  0
VERTEX
  5
157
  8
SignTorch_ELEPHANT_SILHOUET
 10
15.22342234997219
 20
9.165535395363701
 30
0.0
 42
-0.0535358333974673
  0
VERTEX
  5
158
  8
SignTorch_ELEPHANT_SILHOUET
 10
15.27393222840806
 20
9.077280263597736
 30
0.0
 42
-0.106200470461306
  0
VERTEX
  5
159
  8
SignTorch_ELEPHANT_SILHOUET
 10
15.2950004749722
 20
8.974004145363702
 30
0.0
 42
0.0088413780161229
  0
VERTEX
  5
15A
  8
SignTorch_ELEPHANT_SILHOUET
 10
15.29538284220015
 20
8.921715529916455
 30
0.0
 42
0.012245188255653
  0
VERTEX
  5
15B
  8
SignTorch_ELEPHANT_SILHOUET
 10
15.2972504749722
 20
8.884004145363702
 30
0.0
 42
-0.016681616957025
  0
VERTEX
  5
15C
  8
SignTorch_ELEPHANT_SILHOUET
 10
15.30074999281764
 20
8.797884008640537
 30
0.0
 42
-0.0826830369547769
  0
VERTEX
  5
15D
  8
SignTorch_ELEPHANT_SILHOUET
 10
15.29800047497219
 20
8.780597895363702
 30
0.0
 42
-0.4294533953522359
  0
VERTEX
  5
15E
  8
SignTorch_ELEPHANT_SILHOUET
 10
15.27672798036491
 20
8.770666401411143
 30
0.0
 42
-0.0838426959100295
  0
VERTEX
  5
15F
  8
SignTorch_ELEPHANT_SILHOUET
 10
15.18912938122219
 20
8.823386957863704
 30
0.0
 42
-0.0518532964720274
  0
VERTEX
  5
160
  8
SignTorch_ELEPHANT_SILHOUET
 10
15.1610335961229
 20
8.853059213925981
 30
0.0
 42
0.0818074880524817
  0
VERTEX
  5
161
  8
SignTorch_ELEPHANT_SILHOUET
 10
15.1312192249722
 20
8.881004145363702
 30
0.0
 42
0.0381609926134872
  0
VERTEX
  5
162
  8
SignTorch_ELEPHANT_SILHOUET
 10
15.09834957425996
 20
8.899541710625392
 30
0.0
 42
0.032145902809009
  0
VERTEX
  5
163
  8
SignTorch_ELEPHANT_SILHOUET
 10
15.05664891247219
 20
8.915857660988701
 30
0.0
 42
0.0810049773621018
  0
VERTEX
  5
164
  8
SignTorch_ELEPHANT_SILHOUET
 10
15.02055520862459
 20
8.921202934592014
 30
0.0
 42
0.1096252566446197
  0
VERTEX
  5
165
  8
SignTorch_ELEPHANT_SILHOUET
 10
14.9941801624722
 20
8.914943598488703
 30
0.0
 42
0.0391820114312626
  0
VERTEX
  5
166
  8
SignTorch_ELEPHANT_SILHOUET
 10
14.97334642775503
 20
8.902744811212868
 30
0.0
 42
0.0186421638676462
  0
VERTEX
  5
167
  8
SignTorch_ELEPHANT_SILHOUET
 10
14.9328559437222
 20
8.872261957863703
 30
0.0
 42
0.0890003135847899
  0
VERTEX
  5
168
  8
SignTorch_ELEPHANT_SILHOUET
 10
14.85045775491177
 20
8.776526872200531
 30
0.0
 42
0.1987605066341129
  0
VERTEX
  5
169
  8
SignTorch_ELEPHANT_SILHOUET
 10
14.8450004749722
 20
8.738004145363703
 30
0.0
 42
0.0591796458975137
  0
VERTEX
  5
16A
  8
SignTorch_ELEPHANT_SILHOUET
 10
14.85763132807591
 20
8.70542933401235
 30
0.0
 42
-0.110620748242249
  0
VERTEX
  5
16B
  8
SignTorch_ELEPHANT_SILHOUET
 10
14.8668754749722
 20
8.671736567238701
 30
0.0
 42
-0.0201994004361735
  0
VERTEX
  5
16C
  8
SignTorch_ELEPHANT_SILHOUET
 10
14.86698961607158
 20
8.65551827123254
 30
0.0
 42
0.066323735874707
  0
VERTEX
  5
16D
  8
SignTorch_ELEPHANT_SILHOUET
 10
14.8685942249722
 20
8.639379145363703
 30
0.0
 42
0.0178325939005939
  0
VERTEX
  5
16E
  8
SignTorch_ELEPHANT_SILHOUET
 10
14.87455828870392
 20
8.61759338351252
 30
0.0
 42
-0.0586034546436488
  0
VERTEX
  5
16F
  8
SignTorch_ELEPHANT_SILHOUET
 10
14.87873094372219
 20
8.5953947703637
 30
0.0
 42
-0.0075603435212043
  0
VERTEX
  5
170
  8
SignTorch_ELEPHANT_SILHOUET
 10
14.87994543281375
 20
8.572761371979356
 30
0.0
 42
0.1447951361641451
  0
VERTEX
  5
171
  8
SignTorch_ELEPHANT_SILHOUET
 10
14.88546922497219
 20
8.556426020363702
 30
0.0
 42
0.1142694707862094
  0
VERTEX
  5
172
  8
SignTorch_ELEPHANT_SILHOUET
 10
14.90321618293095
 20
8.540557567966848
 30
0.0
 42
-0.0169995299578606
  0
VERTEX
  5
173
  8
SignTorch_ELEPHANT_SILHOUET
 10
14.9411567249722
 20
8.5180197703637
 30
0.0
 42
-0.0431530691505279
  0
VERTEX
  5
174
  8
SignTorch_ELEPHANT_SILHOUET
 10
14.99637670033284
 20
8.475492693793514
 30
0.0
 42
0.0193558952365964
  0
VERTEX
  5
175
  8
SignTorch_ELEPHANT_SILHOUET
 10
15.09504734997219
 20
8.391738520363702
 30
0.0
 42
0.0410865127031146
  0
VERTEX
  5
176
  8
SignTorch_ELEPHANT_SILHOUET
 10
15.15623826480062
 20
8.35138720024748
 30
0.0
 42
0.0759177521321663
  0
VERTEX
  5
177
  8
SignTorch_ELEPHANT_SILHOUET
 10
15.23101414684719
 20
8.3241506297387
 30
0.0
 42
0.040826433453433
  0
VERTEX
  5
178
  8
SignTorch_ELEPHANT_SILHOUET
 10
15.29071967547017
 20
8.317184230778851
 30
0.0
 42
0.0208974895471328
  0
VERTEX
  5
179
  8
SignTorch_ELEPHANT_SILHOUET
 10
15.40800755505032
 20
8.31803368637933
 30
0.0
 42
0.0141946558974876
  0
VERTEX
  5
17A
  8
SignTorch_ELEPHANT_SILHOUET
 10
15.46286767013362
 20
8.322289388739922
 30
0.0
 42
0.042441686918433
  0
VERTEX
  5
17B
  8
SignTorch_ELEPHANT_SILHOUET
 10
15.5064067249722
 20
8.330691645363702
 30
0.0
 42
0.0605434103231995
  0
VERTEX
  5
17C
  8
SignTorch_ELEPHANT_SILHOUET
 10
15.62555081598337
 20
8.380561561805767
 30
0.0
 42
0.0847344735391718
  0
VERTEX
  5
17D
  8
SignTorch_ELEPHANT_SILHOUET
 10
15.6971860218472
 20
8.439254145363702
 30
0.0
 42
0.0573120183777184
  0
VERTEX
  5
17E
  8
SignTorch_ELEPHANT_SILHOUET
 10
15.75132968479287
 20
8.518256971922069
 30
0.0
 42
0.0391810148224749
  0
VERTEX
  5
17F
  8
SignTorch_ELEPHANT_SILHOUET
 10
15.80681883434719
 20
8.646629145363702
 30
0.0
 42
0.0245291271236565
  0
VERTEX
  5
180
  8
SignTorch_ELEPHANT_SILHOUET
 10
15.85787067266287
 20
8.82374910599046
 30
0.0
 42
0.0879151072305012
  0
VERTEX
  5
181
  8
SignTorch_ELEPHANT_SILHOUET
 10
15.8721039905972
 20
9.076748285988703
 30
0.0
 42
0.0483867808414867
  0
VERTEX
  5
182
  8
SignTorch_ELEPHANT_SILHOUET
 10
15.83516103792537
 20
9.245210178572409
 30
0.0
 42
0.0275253998797625
  0
VERTEX
  5
183
  8
SignTorch_ELEPHANT_SILHOUET
 10
15.72637513927884
 20
9.52768288681878
 30
0.0
 42
0.0367892723903931
  0
VERTEX
  5
184
  8
SignTorch_ELEPHANT_SILHOUET
 10
15.65248862751836
 20
9.664162754423684
 30
0.0
 42
0.0467889222599218
  0
VERTEX
  5
185
  8
SignTorch_ELEPHANT_SILHOUET
 10
15.5772953968472
 20
9.760400629738701
 30
0.0
 42
0.012812202248844
  0
VERTEX
  5
186
  8
SignTorch_ELEPHANT_SILHOUET
 10
15.5039142282666
 20
9.834225601819744
 30
0.0
 42
-0.055646321932829
  0
VERTEX
  5
187
  8
SignTorch_ELEPHANT_SILHOUET
 10
15.4371098499722
 20
9.9140510203637
 30
0.0
 42
-0.0419850304946456
  0
VERTEX
  5
188
  8
SignTorch_ELEPHANT_SILHOUET
 10
15.39751838543573
 20
9.986225728154858
 30
0.0
 42
-0.0286490359265575
  0
VERTEX
  5
189
  8
SignTorch_ELEPHANT_SILHOUET
 10
15.35500047497219
 20
10.0990041453637
 30
0.0
 42
-0.0043701301576278
  0
VERTEX
  5
18A
  8
SignTorch_ELEPHANT_SILHOUET
 10
15.33180199341324
 20
10.1754849361466
 30
0.0
 42
0.0190054137977579
  0
VERTEX
  5
18B
  8
SignTorch_ELEPHANT_SILHOUET
 10
15.30637547497219
 20
10.2512541453637
 30
0.0
 42
0.0127453509809457
  0
VERTEX
  5
18C
  8
SignTorch_ELEPHANT_SILHOUET
 10
15.2441975480422
 20
10.403702636548
 30
0.0
 42
-0.0416101629700869
  0
VERTEX
  5
18D
  8
SignTorch_ELEPHANT_SILHOUET
 10
15.2155004749722
 20
10.4875978953637
 30
0.0
 42
-0.0740060254875543
  0
VERTEX
  5
18E
  8
SignTorch_ELEPHANT_SILHOUET
 10
15.20510951884175
 20
10.59256895572641
 30
0.0
 42
0.0019711025625881
  0
VERTEX
  5
18F
  8
SignTorch_ELEPHANT_SILHOUET
 10
15.2110004749722
 20
10.7230041453637
 30
0.0
 42
-0.0191654490485718
  0
VERTEX
  5
190
  8
SignTorch_ELEPHANT_SILHOUET
 10
15.21648156718267
 20
10.79178845410999
 30
0.0
 42
-0.0727963045008651
  0
VERTEX
  5
191
  8
SignTorch_ELEPHANT_SILHOUET
 10
15.2212309437222
 20
10.80941601059808
 30
0.0
 42
-0.1186932165184989
  0
VERTEX
  5
192
  8
SignTorch_ELEPHANT_SILHOUET
 10
15.22829085588599
 20
10.81880385953863
 30
0.0
 42
-0.2827604490964881
  0
VERTEX
  5
193
  8
SignTorch_ELEPHANT_SILHOUET
 10
15.2391840687222
 20
10.82032323716058
 30
0.0
 42
-0.1468653767348855
  0
VERTEX
  5
194
  8
SignTorch_ELEPHANT_SILHOUET
 10
15.25204114991197
 20
10.80940136510796
 30
0.0
 42
0.0086050210239589
  0
VERTEX
  5
195
  8
SignTorch_ELEPHANT_SILHOUET
 10
15.2894223499722
 20
10.7538322703637
 30
0.0
 42
0.0146849470488362
  0
VERTEX
  5
196
  8
SignTorch_ELEPHANT_SILHOUET
 10
15.34152826462403
 20
10.6836647347074
 30
0.0
 42
-0.0179707622705249
  0
VERTEX
  5
197
  8
SignTorch_ELEPHANT_SILHOUET
 10
15.43743797497219
 20
10.5527209422387
 30
0.0
 42
-0.0073983131241993
  0
VERTEX
  5
198
  8
SignTorch_ELEPHANT_SILHOUET
 10
15.52106718349561
 20
10.42547563489464
 30
0.0
 42
0.0269603555883108
  0
VERTEX
  5
199
  8
SignTorch_ELEPHANT_SILHOUET
 10
15.6096078968472
 20
10.30159765122308
 30
0.0
 42
0.044908723591306
  0
VERTEX
  5
19A
  8
SignTorch_ELEPHANT_SILHOUET
 10
15.72253262952731
 20
10.18378463887996
 30
0.0
 42
0.0440768000777283
  0
VERTEX
  5
19B
  8
SignTorch_ELEPHANT_SILHOUET
 10
15.8570004749722
 20
10.0860041453637
 30
0.0
 42
0.0994529737885194
  0
VERTEX
  5
19C
  8
SignTorch_ELEPHANT_SILHOUET
 10
15.9432772683977
 20
10.05525401253896
 30
0.0
 42
0.1022563731193386
  0
VERTEX
  5
19D
  8
SignTorch_ELEPHANT_SILHOUET
 10
15.97675047497219
 20
10.0572541453637
 30
0.0
 42
0.1310716573614234
  0
VERTEX
  5
19E
  8
SignTorch_ELEPHANT_SILHOUET
 10
15.99263404091498
 20
10.06643607822756
 30
0.0
 42
0.2459772567420595
  0
VERTEX
  5
19F
  8
SignTorch_ELEPHANT_SILHOUET
 10
15.99855778698391
 20
10.0853434397973
 30
0.0
 42
0.1511809342038122
  0
VERTEX
  5
1A0
  8
SignTorch_ELEPHANT_SILHOUET
 10
15.98440425404284
 20
10.11260630387488
 30
0.0
 42
-0.0116131491079809
  0
VERTEX
  5
1A1
  8
SignTorch_ELEPHANT_SILHOUET
 10
15.95493797497219
 20
10.14387597153558
 30
0.0
 42
-0.0273581908079257
  0
VERTEX
  5
1A2
  8
SignTorch_ELEPHANT_SILHOUET
 10
15.89732194477451
 20
10.21544804671982
 30
0.0
 42
-0.0193506054896536
  0
VERTEX
  5
1A3
  8
SignTorch_ELEPHANT_SILHOUET
 10
15.72093797497219
 20
10.4821076609887
 30
0.0
 42
-0.0151688289917957
  0
VERTEX
  5
1A4
  8
SignTorch_ELEPHANT_SILHOUET
 10
15.60468527288843
 20
10.68735193507529
 30
0.0
 42
-0.0200678049678179
  0
VERTEX
  5
1A5
  8
SignTorch_ELEPHANT_SILHOUET
 10
15.3752368030972
 20
11.1686096141137
 30
0.0
 42
-0.0028263112620246
  0
VERTEX
  5
1A6
  8
SignTorch_ELEPHANT_SILHOUET
 10
15.33863276586083
 20
11.25540221295061
 30
0.0
 42
-0.1752880653379021
  0
VERTEX
  5
1A7
  8
SignTorch_ELEPHANT_SILHOUET
 10
15.33475047497219
 20
11.3390041453637
 30
0.0
 42
-0.0280017716303498
  0
VERTEX
  5
1A8
  8
SignTorch_ELEPHANT_SILHOUET
 10
15.35062055080576
 20
11.38160086659155
 30
0.0
 42
0.0219998608382316
  0
VERTEX
  5
1A9
  8
SignTorch_ELEPHANT_SILHOUET
 10
15.36700047497219
 20
11.4240041453637
 30
0.0
 42
0.01420001112304
  0
VERTEX
  5
1AA
  8
SignTorch_ELEPHANT_SILHOUET
 10
15.42308338344518
 20
11.60774905859366
 30
0.0
 42
0.0166128250833711
  0
VERTEX
  5
1AB
  8
SignTorch_ELEPHANT_SILHOUET
 10
15.49048680309719
 20
11.8897463328637
 30
0.0
 42
0.0173684890871543
  0
VERTEX
  5
1AC
  8
SignTorch_ELEPHANT_SILHOUET
 10
15.53362515614749
 20
12.14618036634556
 30
0.0
 42
0.0362153523038541
  0
VERTEX
  5
1AD
  8
SignTorch_ELEPHANT_SILHOUET
 10
15.54912742809719
 20
12.4062795359887
 30
0.0
 42
0.0095744926554381
  0
VERTEX
  5
1AE
  8
SignTorch_ELEPHANT_SILHOUET
 10
15.54500590221517
 20
12.53496685802387
 30
0.0
 42
-0.0130241323576947
  0
VERTEX
  5
1AF
  8
SignTorch_ELEPHANT_SILHOUET
 10
15.53900047497219
 20
12.7740041453637
 30
0.0
 42
0.0283734513522715
  0
VERTEX
  5
1B0
  8
SignTorch_ELEPHANT_SILHOUET
 10
15.52906489716765
 20
12.95186668185908
 30
0.0
 42
0.0027891768122966
  0
VERTEX
  5
1B1
  8
SignTorch_ELEPHANT_SILHOUET
 10
15.50887547497219
 20
13.1220041453637
 30
0.0
 42
-0.0114516382048184
  0
VERTEX
  5
1B2
  8
SignTorch_ELEPHANT_SILHOUET
 10
15.49385699903571
 20
13.27050819350356
 30
0.0
 42
-0.0443444583745733
  0
VERTEX
  5
1B3
  8
SignTorch_ELEPHANT_SILHOUET
 10
15.49600047497219
 20
13.4700041453637
 30
0.0
 42
0.0101438784770927
  0
VERTEX
  5
1B4
  8
SignTorch_ELEPHANT_SILHOUET
 10
15.50604279779273
 20
13.59671612539375
 30
0.0
 42
0.0499982613733214
  0
VERTEX
  5
1B5
  8
SignTorch_ELEPHANT_SILHOUET
 10
15.49959642223782
 20
13.7534260203637
 30
0.0
 42
0.0919970673360554
  0
VERTEX
  5
1B6
  8
SignTorch_ELEPHANT_SILHOUET
 10
15.40248580600895
 20
14.0421063100783
 30
0.0
 42
0.1075098725259406
  0
VERTEX
  5
1B7
  8
SignTorch_ELEPHANT_SILHOUET
 10
15.2296762562222
 20
14.2382736766137
 30
0.0
 42
0.0373991208935693
  0
VERTEX
  5
1B8
  8
SignTorch_ELEPHANT_SILHOUET
 10
15.15426316011823
 20
14.28551792576616
 30
0.0
 42
-0.0153830693360304
  0
VERTEX
  5
1B9
  8
SignTorch_ELEPHANT_SILHOUET
 10
15.01050047497219
 20
14.3670041453637
 30
0.0
 42
-0.0308359344898617
  0
VERTEX
  5
1BA
  8
SignTorch_ELEPHANT_SILHOUET
 10
14.89865482338781
 20
14.44485497359823
 30
0.0
 42
-0.0820023058256188
  0
VERTEX
  5
1BB
  8
SignTorch_ELEPHANT_SILHOUET
 10
14.8640004749722
 20
14.4830041453637
 30
0.0
 42
-0.0333823505984128
  0
VERTEX
  5
1BC
  8
SignTorch_ELEPHANT_SILHOUET
 10
14.83214294616919
 20
14.54035383141271
 30
0.0
 42
-0.0131723231892049
  0
VERTEX
  5
1BD
  8
SignTorch_ELEPHANT_SILHOUET
 10
14.7653285999722
 20
14.6924260203637
 30
0.0
 42
-0.0012803200629447
  0
VERTEX
  5
1BE
  8
SignTorch_ELEPHANT_SILHOUET
 10
14.67825011483462
 20
14.90727589925154
 30
0.0
 42
0.0205876654198655
  0
VERTEX
  5
1BF
  8
SignTorch_ELEPHANT_SILHOUET
 10
14.60756492809719
 20
15.0640100047387
 30
0.0
 42
0.0400531722550398
  0
VERTEX
  5
1C0
  8
SignTorch_ELEPHANT_SILHOUET
 10
14.48088146316509
 20
15.27301682413085
 30
0.0
 42
0.0558697070600533
  0
VERTEX
  5
1C1
  8
SignTorch_ELEPHANT_SILHOUET
 10
14.36300047497219
 20
15.4030041453637
 30
0.0
 42
0.1539990871840526
  0
VERTEX
  5
1C2
  8
SignTorch_ELEPHANT_SILHOUET
 10
14.27274940314648
 20
15.44298136096559
 30
0.0
 42
0.0797417787129087
  0
VERTEX
  5
1C3
  8
SignTorch_ELEPHANT_SILHOUET
 10
14.17942137340969
 20
15.43852025864495
 30
0.0
 42
0.0599522492255348
  0
VERTEX
  5
1C4
  8
SignTorch_ELEPHANT_SILHOUET
 10
14.07507521268542
 20
15.40316668833484
 30
0.0
 42
0.0800855642694978
  0
VERTEX
  5
1C5
  8
SignTorch_ELEPHANT_SILHOUET
 10
13.8725004749722
 20
15.2627072703637
 30
0.0
 42
0.0288430438267784
  0
VERTEX
  5
1C6
  8
SignTorch_ELEPHANT_SILHOUET
 10
13.79188835110681
 20
15.1756597349974
 30
0.0
 42
0.0240097481249216
  0
VERTEX
  5
1C7
  8
SignTorch_ELEPHANT_SILHOUET
 10
13.7066410999722
 20
15.0614865672387
 30
0.0
 42
0.0008672200257215
  0
VERTEX
  5
1C8
  8
SignTorch_ELEPHANT_SILHOUET
 10
13.67198457271697
 20
15.00990569788071
 30
0.0
 42
-0.1724467941018835
  0
VERTEX
  5
1C9
  8
SignTorch_ELEPHANT_SILHOUET
 10
13.65456468395657
 20
14.9969523875512
 30
0.0
 42
-0.2378252226691959
  0
VERTEX
  5
1CA
  8
SignTorch_ELEPHANT_SILHOUET
 10
13.62637924358774
 20
15.00176512914913
 30
0.0
 42
-0.0453637948910079
  0
VERTEX
  5
1CB
  8
SignTorch_ELEPHANT_SILHOUET
 10
13.5920961780972
 20
15.0322463328637
 30
0.0
 42
-0.0150667151319516
  0
VERTEX
  5
1CC
  8
SignTorch_ELEPHANT_SILHOUET
 10
13.56330690311356
 20
15.06485721403041
 30
0.0
 42
0.0230554470112317
  0
VERTEX
  5
1CD
  8
SignTorch_ELEPHANT_SILHOUET
 10
13.5340004749722
 20
15.0970041453637
 30
0.0
 42
0.0081780752042212
  0
VERTEX
  5
1CE
  8
SignTorch_ELEPHANT_SILHOUET
 10
13.46340075284136
 20
15.16534323227208
 30
0.0
 42
0.0045448778394338
  0
VERTEX
  5
1CF
  8
SignTorch_ELEPHANT_SILHOUET
 10
13.3332817249722
 20
15.2850353953637
 30
0.0
 42
0.0238507522765498
  0
VERTEX
  5
1D0
  8
SignTorch_ELEPHANT_SILHOUET
 10
13.01612896379302
 20
15.54514499883604
 30
0.0
 42
0.0387593777015037
  0
VERTEX
  5
1D1
  8
SignTorch_ELEPHANT_SILHOUET
 10
12.80231248669094
 20
15.67971264145745
 30
0.0
 42
0.0360553485962976
  0
VERTEX
  5
1D2
  8
SignTorch_ELEPHANT_SILHOUET
 10
12.66230867831874
 20
15.74092409894391
 30
0.0
 42
0.0368522765421539
  0
VERTEX
  5
1D3
  8
SignTorch_ELEPHANT_SILHOUET
 10
12.5180785999722
 20
15.7802853953637
 30
0.0
 42
0.0203197924970931
  0
VERTEX
  5
1D4
  8
SignTorch_ELEPHANT_SILHOUET
 10
12.39321349121719
 20
15.79942692317756
 30
0.0
 42
0.0131657519593444
  0
VERTEX
  5
1D5
  8
SignTorch_ELEPHANT_SILHOUET
 10
12.1990004749722
 20
15.8160041453637
 30
0.0
 42
0.0316864173712613
  0
VERTEX
  5
1D6
  8
SignTorch_ELEPHANT_SILHOUET
 10
12.10585016434626
 20
15.81558197284132
 30
0.0
 42
-0.0011625585921497
  0
SEQEND
  5
1D7
  8
SignTorch_ELEPHANT_SILHOUET
  0
ENDSEC
  0
EOF
